<?xml version="1.0" standalone="no"?>
<!DOCTYPE svg PUBLIC "-//W3C//DTD SVG 20010904//EN"
 "http://www.w3.org/TR/2001/REC-SVG-20010904/DTD/svg10.dtd">
<svg version="1.0" xmlns="http://www.w3.org/2000/svg"
 width="3840.000000pt" height="2160.000000pt" viewBox="0 0 3840.000000 2160.000000"
 preserveAspectRatio="xMidYMid meet">

<g transform="translate(0.000000,2160.000000) scale(0.100000,-0.100000)"
fill="#000000" stroke="none">
<path d="M4847 17054 c-3 -3 -39 -6 -79 -6 -107 1 -378 -25 -551 -54 -880
-143 -1690 -524 -2392 -1122 -142 -121 -442 -425 -564 -572 -904 -1084 -1301
-2420 -1110 -3744 116 -806 445 -1593 940 -2251 278 -370 637 -728 1004 -1000
633 -471 1388 -784 2181 -905 265 -40 467 -54 784 -54 678 0 1246 102 1825
329 301 117 528 234 795 410 266 175 412 296 655 539 448 450 768 972 975
1594 128 382 201 758 231 1187 15 216 7 710 -15 895 -17 143 -44 309 -52 322
-3 4 -1004 8 -2225 8 l-2219 0 0 -655 0 -655 1573 0 c866 0 1576 -2 1579 -5 8
-8 -20 -218 -47 -363 -69 -361 -206 -699 -399 -990 -110 -166 -193 -268 -327
-401 -458 -459 -1082 -753 -1824 -860 -548 -79 -1070 -42 -1580 114 -66 21
-124 38 -130 39 -5 2 -23 8 -40 15 -16 7 -70 28 -120 48 -189 75 -417 194
-590 308 -121 79 -300 210 -335 245 -3 3 -36 33 -75 66 -133 117 -341 337
-430 454 -22 29 -45 57 -50 64 -23 26 -175 257 -218 334 -245 426 -398 900
-451 1392 -69 638 23 1273 266 1845 353 830 1018 1497 1833 1837 862 360 1826
366 2673 19 371 -153 748 -388 998 -624 l82 -77 32 37 c18 21 146 155 284 298
502 519 596 618 596 626 0 25 -356 323 -545 456 -631 443 -1421 738 -2220 827
-240 27 -701 46 -718 30z"/>
<path d="M30530 12135 l0 -4605 685 0 685 0 0 4605 0 4605 -685 0 -685 0 0
-4605z"/>
<path d="M35279 13589 c-583 -27 -1134 -233 -1609 -599 -115 -89 -371 -343
-464 -460 -329 -413 -562 -961 -640 -1500 -56 -390 -51 -826 15 -1191 165
-921 693 -1667 1495 -2113 793 -441 1838 -503 2684 -160 411 167 744 396 1085
745 133 136 353 395 344 403 -21 18 -1061 706 -1067 706 -5 0 -26 -26 -48 -57
-21 -32 -74 -101 -117 -153 -274 -332 -628 -542 -1037 -615 -146 -26 -427 -31
-588 -11 -262 34 -502 120 -701 254 -110 74 -270 228 -364 350 -82 107 -211
317 -204 329 3 5 942 398 2086 873 1144 476 2081 870 2081 875 0 22 -285 677
-342 785 -286 542 -715 976 -1228 1244 -331 172 -703 276 -1045 292 -66 3
-136 6 -155 7 -19 1 -101 -1 -181 -4z m491 -1218 c269 -54 494 -174 669 -356
42 -44 96 -108 118 -140 41 -62 87 -145 81 -150 -19 -15 -2790 -1166 -2796
-1161 -4 4 -7 78 -6 164 1 253 49 446 169 687 261 520 772 900 1310 974 102
14 343 5 455 -18z"/>
<path d="M12900 13583 c-521 -49 -852 -140 -1254 -346 -390 -199 -760 -510
-1028 -863 -160 -210 -353 -566 -442 -816 -429 -1200 -93 -2579 832 -3415 469
-423 1036 -680 1702 -770 209 -28 692 -25 890 6 277 42 479 96 715 188 988
389 1691 1246 1879 2293 40 227 50 347 50 605 0 687 -167 1267 -515 1785 -562
835 -1571 1349 -2629 1338 -91 0 -181 -3 -200 -5z m415 -1223 c457 -53 871
-280 1157 -636 226 -281 362 -623 409 -1024 19 -165 7 -463 -25 -632 -97 -513
-374 -940 -789 -1217 -168 -113 -391 -205 -608 -253 -90 -19 -133 -22 -324
-22 -240 -1 -306 8 -504 65 -492 143 -905 516 -1113 1007 -221 520 -219 1149
4 1657 233 531 689 906 1244 1025 180 38 380 49 549 30z"/>
<path d="M26430 13579 c-1023 -69 -1963 -716 -2448 -1685 -351 -701 -435
-1479 -242 -2239 174 -686 575 -1283 1156 -1722 301 -228 682 -411 1044 -503
426 -108 883 -114 1285 -16 382 94 689 274 979 576 l106 111 0 -391 c0 -500
-15 -640 -97 -895 -79 -247 -195 -438 -372 -615 -167 -166 -328 -267 -551
-345 -341 -118 -792 -130 -1115 -28 -44 14 -84 26 -90 28 -53 12 -266 124
-363 192 -107 75 -273 230 -359 336 -32 40 -62 76 -66 82 -35 43 -128 199
-170 288 -43 90 -55 107 -72 103 -11 -2 -274 -110 -585 -241 -311 -130 -570
-239 -577 -242 -8 -3 5 -40 42 -113 165 -329 374 -620 629 -876 488 -489 1055
-755 1776 -835 144 -16 538 -16 690 0 897 92 1588 483 2035 1151 307 458 481
1016 535 1714 6 82 10 1198 10 3057 l0 2929 -650 0 -650 0 -2 -264 -3 -264
-113 109 c-143 138 -256 223 -428 322 -124 70 -309 151 -325 141 -5 -3 -9 -1
-9 5 0 7 -36 21 -70 26 -3 0 -10 4 -16 8 -18 11 -210 56 -313 72 -102 17 -344
35 -431 33 -30 0 -107 -4 -170 -9z m602 -1238 c325 -66 619 -229 858 -478 275
-286 441 -635 506 -1068 22 -147 25 -492 6 -635 -46 -334 -154 -627 -325 -880
-99 -146 -286 -332 -432 -430 -103 -68 -314 -180 -342 -180 -7 0 -13 -4 -13
-8 0 -4 -8 -8 -17 -8 -10 -1 -56 -13 -103 -26 -265 -79 -572 -82 -860 -8 -47
12 -89 23 -95 24 -5 1 -26 9 -46 18 -20 9 -47 19 -60 23 -33 10 -149 69 -234
118 -212 122 -440 346 -582 572 -88 141 -177 350 -223 529 -47 183 -64 326
-64 551 0 217 15 347 61 535 178 734 747 1261 1471 1365 128 19 364 12 494
-14z"/>
</g>
</svg>
